{
  "info" : {
    "version" : 1,
    "author" : "xcode"
  },
  "data" : [
    {
      "idiom" : "universal",
      "filename" : "30s.mp4",
      "universal-type-identifier" : "public.mpeg-4"
    }
  ]
}